## Interface: 11200
## Title: EngBags
## Notes: AutoSorting Bags
## Notes-ruRU: Сортировка сумок
## RequiredDeps: 
## OptionalDeps: pfUI, lootlink, auctioneer, equipcompare
## SavedVariables: EngBagsItems, EngBagsConfig
## SavedVariablesPerCharacter:
## Version: 1.58
## Dependencies: 
## LoadOnDemand: 0
EngBank.xml
eb_options.xml
EngInventory.xml
ei_options.xml